{
  "uid" : "b1a8273437954620fa374b796ffaacdd",
  "name" : "behaviors",
  "children" : [ {
    "name" : "ПоступлениеМЗ_Дополнительно",
    "children" : [ {
      "name" : " Скопировать существующий документ, распровести существующий документ",
      "children" : [ {
        "name" : "(BGU) <описание сценария>",
        "uid" : "508dcc61a77fdd78",
        "parentUid" : "4413001eaef67fac6e57a8e9590d98ed",
        "status" : "passed",
        "time" : {
          "start" : 1558498909189,
          "stop" : 1558498928532,
          "duration" : 19343
        },
        "flaky" : false,
        "newFailed" : false,
        "parameters" : [ ]
      } ],
      "uid" : "4413001eaef67fac6e57a8e9590d98ed"
    } ],
    "uid" : "9df0395704101936e4d1697c6b2c6e51"
  }, {
    "name" : "ПоступлениеМЗ",
    "children" : [ {
      "name" : "",
      "children" : [ {
        "name" : "(BGU) Создание нового договора, документа Регистрация обязательств и сведений по договорам и оздание документа Поступление МЗ, проверка отчетом Поступление товаров, услуг, работ по договорам",
        "uid" : "8db924faedaae70d",
        "parentUid" : "f2deb439cca3872dd50d06e1d572f620",
        "status" : "passed",
        "time" : {
          "start" : 1558498929845,
          "stop" : 1558498996263,
          "duration" : 66418
        },
        "flaky" : false,
        "newFailed" : false,
        "parameters" : [ ]
      } ],
      "uid" : "f2deb439cca3872dd50d06e1d572f620"
    } ],
    "uid" : "b3f2b78b8273ea33a63bf853c8d8eac8"
  }, {
    "name" : "1_Справочники Дети, Группы_создание ребенка",
    "children" : [ {
      "name" : " Ссздание данных на чистой базе",
      "children" : [ {
        "name" : "(BGU) Создание детей, группы",
        "uid" : "54637c442c9146fa",
        "parentUid" : "9c8bf701e7db50587b2641530bc962c6",
        "status" : "passed",
        "time" : {
          "start" : 1558498997689,
          "stop" : 1558499022361,
          "duration" : 24672
        },
        "flaky" : false,
        "newFailed" : false,
        "parameters" : [ ]
      } ],
      "uid" : "9c8bf701e7db50587b2641530bc962c6"
    } ],
    "uid" : "f689352ecec89e3207f1b6fc4c3487ba"
  }, {
    "name" : "10-Ведомость по расчетам с родителями",
    "children" : [ {
      "name" : " <описание фичи>",
      "children" : [ {
        "name" : "(BGU) <описание сценария>",
        "uid" : "6aace56ca9074486",
        "parentUid" : "ad71bcd232af0959d5c22995d5f45264",
        "status" : "failed",
        "time" : {
          "start" : 1558499024098,
          "stop" : 1558499041082,
          "duration" : 16984
        },
        "flaky" : false,
        "newFailed" : false,
        "parameters" : [ ]
      } ],
      "uid" : "ad71bcd232af0959d5c22995d5f45264"
    } ],
    "uid" : "cb75b507457d7f04da8f79e1e1119df0"
  }, {
    "name" : "11-Отчет Приложение 3 к распоряжению №958-р",
    "children" : [ {
      "name" : " <описание фичи>",
      "children" : [ {
        "name" : "(BGU) <описание сценария>",
        "uid" : "ea6d673eb438d135",
        "parentUid" : "144bcd51c147b3b25cc6f7e392570a99",
        "status" : "failed",
        "time" : {
          "start" : 1558499043998,
          "stop" : 1558499058094,
          "duration" : 14096
        },
        "flaky" : false,
        "newFailed" : false,
        "parameters" : [ ]
      } ],
      "uid" : "144bcd51c147b3b25cc6f7e392570a99"
    } ],
    "uid" : "ff6945a36eddecf6bea77fa75fdcab0b"
  }, {
    "name" : "12-Отчет Приложение 4 к распоряжению №958-р",
    "children" : [ {
      "name" : " <описание фичи>",
      "children" : [ {
        "name" : "(BGU) Создаю корректировки расчетов родительской платы и формирую отчет Приложение 4 к распоряжению №958-р",
        "uid" : "7adf9354887489ba",
        "parentUid" : "dfa082314fafe55067a1bfe240df6add",
        "status" : "failed",
        "time" : {
          "start" : 1558499059639,
          "stop" : 1558499077030,
          "duration" : 17391
        },
        "flaky" : false,
        "newFailed" : false,
        "parameters" : [ ]
      } ],
      "uid" : "dfa082314fafe55067a1bfe240df6add"
    } ],
    "uid" : "cd40561973d909551619fa3b5d2df207"
  }, {
    "name" : "13-Отчет Приложение 5 к распоряжению №958-р",
    "children" : [ {
      "name" : " <описание фичи>",
      "children" : [ {
        "name" : "(BGU) <описание сценария>",
        "uid" : "22b2ea9560d37fb9",
        "parentUid" : "abad604dfa84f28a01316bdaa0f1e390",
        "status" : "failed",
        "time" : {
          "start" : 1558499078536,
          "stop" : 1558499090402,
          "duration" : 11866
        },
        "flaky" : false,
        "newFailed" : false,
        "parameters" : [ ]
      } ],
      "uid" : "abad604dfa84f28a01316bdaa0f1e390"
    } ],
    "uid" : "08cb1b9a5c8bd7403af9ac8c3118d311"
  }, {
    "name" : "14-Отчет Приложение 6 к распоряжению №958-р",
    "children" : [ {
      "name" : " <описание фичи>",
      "children" : [ {
        "name" : "(BGU) <описание сценария>",
        "uid" : "bd2902066ea3b33c",
        "parentUid" : "571d32f2224419326eb79be4dfcc9668",
        "status" : "failed",
        "time" : {
          "start" : 1558499091737,
          "stop" : 1558499106211,
          "duration" : 14474
        },
        "flaky" : false,
        "newFailed" : false,
        "parameters" : [ ]
      } ],
      "uid" : "571d32f2224419326eb79be4dfcc9668"
    } ],
    "uid" : "931fe08e8a79db2ba11144a1e26f1c0b"
  }, {
    "name" : "2_Ввод начальных остатков по РП",
    "children" : [ {
      "name" : " Ввод начальных остатков по родительской оплате",
      "children" : [ {
        "name" : "(BGU) Ввод начальных остатков по родительской оплате",
        "uid" : "8bf113021b47d38",
        "parentUid" : "a710b977358a4819c190faeca45e3372",
        "status" : "passed",
        "time" : {
          "start" : 1558499108482,
          "stop" : 1558499123909,
          "duration" : 15427
        },
        "flaky" : false,
        "newFailed" : false,
        "parameters" : [ ]
      } ],
      "uid" : "a710b977358a4819c190faeca45e3372"
    } ],
    "uid" : "fec3691d471bf30f2ee1069d2b16d03d"
  }, {
    "name" : "3-Выписка квитанций по РП",
    "children" : [ {
      "name" : " <описание фичи>",
      "children" : [ {
        "name" : "(BGU) Выписка квитанции по РП",
        "uid" : "e06d67c05bd21104",
        "parentUid" : "4e1aa29c06c031eb176051ceff0ab5f8",
        "status" : "passed",
        "time" : {
          "start" : 1558499125249,
          "stop" : 1558499133611,
          "duration" : 8362
        },
        "flaky" : false,
        "newFailed" : false,
        "parameters" : [ ]
      } ],
      "uid" : "4e1aa29c06c031eb176051ceff0ab5f8"
    } ],
    "uid" : "f5d98e2f09c79c22d2050d66324d0734"
  }, {
    "name" : "4-Начиление РП",
    "children" : [ {
      "name" : " <описание фичи>",
      "children" : [ {
        "name" : "(BGU) <описание сценария>",
        "uid" : "fd3736ef40a3ed3e",
        "parentUid" : "224970a0bcba1cdf9cc10ae228b80ada",
        "status" : "failed",
        "time" : {
          "start" : 1558499135000,
          "stop" : 1558499155070,
          "duration" : 20070
        },
        "flaky" : false,
        "newFailed" : false,
        "parameters" : [ ]
      } ],
      "uid" : "224970a0bcba1cdf9cc10ae228b80ada"
    } ],
    "uid" : "a298ca32dde6341ab90f4f31e93f0994"
  }, {
    "name" : "5-Поступление РП",
    "children" : [ {
      "name" : " <описание фичи>",
      "children" : [ {
        "name" : "(BGU) <описание сценария>",
        "uid" : "2801d7b4b4895a7e",
        "parentUid" : "5ed159fbe9991667dffd9252b01abf20",
        "status" : "passed",
        "time" : {
          "start" : 1558499157152,
          "stop" : 1558499167029,
          "duration" : 9877
        },
        "flaky" : false,
        "newFailed" : false,
        "parameters" : [ ]
      } ],
      "uid" : "5ed159fbe9991667dffd9252b01abf20"
    } ],
    "uid" : "89964dc371ab171a79462d4d540eff11"
  }, {
    "name" : "6-Корректировка рассчетов по РП",
    "children" : [ {
      "name" : " <описание фичи>",
      "children" : [ {
        "name" : "(BGU) Создаю корректировки расчетов родительской платы",
        "uid" : "a09ce80a23e1b916",
        "parentUid" : "6978389788d01a77a3d52b811e9a910b",
        "status" : "failed",
        "time" : {
          "start" : 1558499168263,
          "stop" : 1558499175756,
          "duration" : 7493
        },
        "flaky" : false,
        "newFailed" : false,
        "parameters" : [ ]
      } ],
      "uid" : "6978389788d01a77a3d52b811e9a910b"
    } ],
    "uid" : "721914845d8b1a8c002a34344bb37c37"
  }, {
    "name" : "7-Выбытие задолженности по РП",
    "children" : [ {
      "name" : " <описание фичи>",
      "children" : [ {
        "name" : "(BGU) <описание сценария>",
        "uid" : "ea332955da1f4ecb",
        "parentUid" : "f995c22182e4b9dd635777b5f0656f68",
        "status" : "failed",
        "time" : {
          "start" : 1558499177252,
          "stop" : 1558499183445,
          "duration" : 6193
        },
        "flaky" : false,
        "newFailed" : false,
        "parameters" : [ ]
      } ],
      "uid" : "f995c22182e4b9dd635777b5f0656f68"
    } ],
    "uid" : "8225c1d337bbdc00af44503ddadacdf6"
  }, {
    "name" : "8-Списание задолжеенности по РП",
    "children" : [ {
      "name" : " <описание фичи>",
      "children" : [ {
        "name" : "(BGU) <описание сценария>",
        "uid" : "846b40437412fa0",
        "parentUid" : "43cfa83f8eae4245ead8eb7ab1eccb3f",
        "status" : "failed",
        "time" : {
          "start" : 1558499184770,
          "stop" : 1558499188284,
          "duration" : 3514
        },
        "flaky" : false,
        "newFailed" : false,
        "parameters" : [ ]
      } ],
      "uid" : "43cfa83f8eae4245ead8eb7ab1eccb3f"
    } ],
    "uid" : "93b11503ee096e1761e6c3df3517d8e8"
  }, {
    "name" : "9-Табель учета посещения детей",
    "children" : [ {
      "name" : " <описание фичи>",
      "children" : [ {
        "name" : "(BGU) <описание сценария>",
        "uid" : "7303e11e4857ab27",
        "parentUid" : "491ea9e8c2bf1a1ea082917147fec9bc",
        "status" : "failed",
        "time" : {
          "start" : 1558499189641,
          "stop" : 1558499198134,
          "duration" : 8493
        },
        "flaky" : false,
        "newFailed" : false,
        "parameters" : [ ]
      } ],
      "uid" : "491ea9e8c2bf1a1ea082917147fec9bc"
    } ],
    "uid" : "a1070cf7db1225af7ff0713796a7f149"
  }, {
    "name" : "Тесты_ОткрытиеФормКонфигурации",
    "children" : [ {
      "name" : "УпрФорма # Тесты_ОткрытиеФормКонфигурации",
      "children" : [ {
        "name" : "Новые : Документ.ЧекККМ.Форма.ФормаДокумента",
        "uid" : "7387abf270ca8ad6",
        "parentUid" : "f8ffab09e8dc71cc4c8c2f675990de15",
        "status" : "passed",
        "time" : {
          "start" : 1558499281878,
          "stop" : 1558499286546,
          "duration" : 4668
        },
        "flaky" : false,
        "newFailed" : false,
        "parameters" : [ ]
      }, {
        "name" : "Существующие : Документ.ЧекККМ.Форма.ФормаДокумента",
        "uid" : "b83ed9f5b2f0b73f",
        "parentUid" : "f8ffab09e8dc71cc4c8c2f675990de15",
        "status" : "passed",
        "time" : {
          "start" : 1558499286783,
          "stop" : 1558499287791,
          "duration" : 1008
        },
        "flaky" : false,
        "newFailed" : false,
        "parameters" : [ ]
      }, {
        "name" : "Списки : Документ.ЧекККМ.Форма.ФормаСписка",
        "uid" : "6c2158bab301804a",
        "parentUid" : "f8ffab09e8dc71cc4c8c2f675990de15",
        "status" : "passed",
        "time" : {
          "start" : 1558499288113,
          "stop" : 1558499289084,
          "duration" : 971
        },
        "flaky" : false,
        "newFailed" : false,
        "parameters" : [ ]
      }, {
        "name" : "ТестДолжен_ПроверитьБагПлатформыПриОткрытииУправляемойФормыПриОткрытииКоторойЕстьИсключение",
        "uid" : "6ce39bf2eadea898",
        "parentUid" : "f8ffab09e8dc71cc4c8c2f675990de15",
        "status" : "passed",
        "time" : {
          "start" : 1558499289259,
          "stop" : 1558499289819,
          "duration" : 560
        },
        "flaky" : false,
        "newFailed" : false,
        "parameters" : [ ]
      } ],
      "uid" : "f8ffab09e8dc71cc4c8c2f675990de15"
    } ],
    "uid" : "62c1805dd714094ed9f5e06c5120ac8a"
  }, {
    "name" : "УпрФорма # Тесты_ВыполнениеТестов",
    "children" : [ {
      "name" : "Тесты с параметрами",
      "children" : [ {
        "name" : "ТестДолжен_ПроверитьВыполнениеТеста_ОдинПараметр",
        "uid" : "648a44989d793145",
        "parentUid" : "fe6ef94e9cbf9036f3f71b83406c13f3",
        "status" : "passed",
        "time" : {
          "start" : 1558499289952,
          "stop" : 1558499290104,
          "duration" : 152
        },
        "flaky" : false,
        "newFailed" : false,
        "parameters" : [ ]
      }, {
        "name" : "ТестДолжен_ПроверитьВыполнениеТеста_НесколькоПараметров",
        "uid" : "8617dbd8e4aa7582",
        "parentUid" : "fe6ef94e9cbf9036f3f71b83406c13f3",
        "status" : "passed",
        "time" : {
          "start" : 1558499290104,
          "stop" : 1558499290254,
          "duration" : 150
        },
        "flaky" : false,
        "newFailed" : false,
        "parameters" : [ ]
      } ],
      "uid" : "fe6ef94e9cbf9036f3f71b83406c13f3"
    }, {
      "name" : "Передача контекста",
      "children" : [ {
        "name" : "ТестДолжен_ПроверитьПередачуКонтекстаВЗависимыхТестах",
        "uid" : "c95cb9d1961ed8ea",
        "parentUid" : "4bb75eaf97e9f4274bb9191adf6a3a89",
        "status" : "passed",
        "time" : {
          "start" : 1558499290384,
          "stop" : 1558499290499,
          "duration" : 115
        },
        "flaky" : false,
        "newFailed" : false,
        "parameters" : [ ]
      }, {
        "name" : "ТестДолжен_ПроверитьЧтоПолучатьКонтекстМожноТолькоВРамкахКонтейнераСоСтрогимПорядкомВыполнения",
        "uid" : "6b8b9f0d0eb27eb5",
        "parentUid" : "4bb75eaf97e9f4274bb9191adf6a3a89",
        "status" : "passed",
        "time" : {
          "start" : 1558499290499,
          "stop" : 1558499290518,
          "duration" : 19
        },
        "flaky" : false,
        "newFailed" : false,
        "parameters" : [ ]
      }, {
        "name" : "ТестДолжен_ПроверитьЧтоСохранятьКонтекстМожноТолькоВРамкахКонтейнераСоСтрогимПорядкомВыполнения",
        "uid" : "60837f66944d0c8f",
        "parentUid" : "4bb75eaf97e9f4274bb9191adf6a3a89",
        "status" : "passed",
        "time" : {
          "start" : 1558499290518,
          "stop" : 1558499290537,
          "duration" : 19
        },
        "flaky" : false,
        "newFailed" : false,
        "parameters" : [ ]
      } ],
      "uid" : "4bb75eaf97e9f4274bb9191adf6a3a89"
    }, {
      "name" : "Выполнение тестов",
      "children" : [ {
        "name" : "ТестДолжен_ПроверитьРезультатТестированияОтсутствующегоМетода",
        "uid" : "802f05e3a95f6086",
        "parentUid" : "a57a80df0c8de35fd7457c814ec52f85",
        "status" : "passed",
        "time" : {
          "start" : 1558499290657,
          "stop" : 1558499290776,
          "duration" : 119
        },
        "flaky" : false,
        "newFailed" : false,
        "parameters" : [ ]
      }, {
        "name" : "ТестДолжен_ПроверитьВызов_ПослеЗапускаТеста",
        "uid" : "b7d996fb6d16ef85",
        "parentUid" : "a57a80df0c8de35fd7457c814ec52f85",
        "status" : "passed",
        "time" : {
          "start" : 1558499290776,
          "stop" : 1558499290816,
          "duration" : 40
        },
        "flaky" : false,
        "newFailed" : false,
        "parameters" : [ ]
      }, {
        "name" : "ТестДолжен_ПроверитьРезультатТеста_Когда_ПередЗапускаТеста_СОшибкой",
        "uid" : "2a5ac98e79360760",
        "parentUid" : "a57a80df0c8de35fd7457c814ec52f85",
        "status" : "passed",
        "time" : {
          "start" : 1558499290816,
          "stop" : 1558499290857,
          "duration" : 41
        },
        "flaky" : false,
        "newFailed" : false,
        "parameters" : [ ]
      }, {
        "name" : "ТестДолжен_ПроверитьРезультатТеста_Когда_ПослеЗапускаТеста_СОшибкой",
        "uid" : "9edddc4f2b29a57f",
        "parentUid" : "a57a80df0c8de35fd7457c814ec52f85",
        "status" : "passed",
        "time" : {
          "start" : 1558499290857,
          "stop" : 1558499290899,
          "duration" : 42
        },
        "flaky" : false,
        "newFailed" : false,
        "parameters" : [ ]
      }, {
        "name" : "ТестДолжен_ПроверитьРезультатТестированияПадающегоМетода",
        "uid" : "ebb3c5fa61bcd134",
        "parentUid" : "a57a80df0c8de35fd7457c814ec52f85",
        "status" : "passed",
        "time" : {
          "start" : 1558499290899,
          "stop" : 1558499291111,
          "duration" : 212
        },
        "flaky" : false,
        "newFailed" : false,
        "parameters" : [ ]
      }, {
        "name" : "ТестДолжен_ПроверитьВызов_ПередЗапускомТеста",
        "uid" : "5b0e303ecf94904e",
        "parentUid" : "a57a80df0c8de35fd7457c814ec52f85",
        "status" : "passed",
        "time" : {
          "start" : 1558499291111,
          "stop" : 1558499291132,
          "duration" : 21
        },
        "flaky" : false,
        "newFailed" : false,
        "parameters" : [ ]
      }, {
        "name" : "ТестДолжен_ПроверитьВызов_ПослеЗапускаТеста_УПадающегоТеста",
        "uid" : "bbfc32f7080ea1ce",
        "parentUid" : "a57a80df0c8de35fd7457c814ec52f85",
        "status" : "passed",
        "time" : {
          "start" : 1558499291132,
          "stop" : 1558499291291,
          "duration" : 159
        },
        "flaky" : false,
        "newFailed" : false,
        "parameters" : [ ]
      }, {
        "name" : "ТестДолжен_ПроверитьРезультатТестированияУспешныйМетода",
        "uid" : "8a34109155724ef2",
        "parentUid" : "a57a80df0c8de35fd7457c814ec52f85",
        "status" : "passed",
        "time" : {
          "start" : 1558499291291,
          "stop" : 1558499291417,
          "duration" : 126
        },
        "flaky" : false,
        "newFailed" : false,
        "parameters" : [ ]
      } ],
      "uid" : "a57a80df0c8de35fd7457c814ec52f85"
    }, {
      "name" : "Статистика",
      "children" : [ {
        "name" : "ТестДолжен_ПроверитьВРезультатеТестирования_ЗаполнениеСтатистики",
        "uid" : "5c5687227a8088ae",
        "parentUid" : "a77b0716063c9c87249cb7eb7213b76c",
        "status" : "passed",
        "time" : {
          "start" : 1558499291565,
          "stop" : 1558499291946,
          "duration" : 381
        },
        "flaky" : false,
        "newFailed" : false,
        "parameters" : [ ]
      } ],
      "uid" : "a77b0716063c9c87249cb7eb7213b76c"
    }, {
      "name" : "Режимы выполнения тестов (случайный и строгий)",
      "children" : [ {
        "name" : "ТестДолжен_Проверить_ЧтоПадениеОдногоТестаВКонтейнереСоСтрогимПорядком_ПриводитКПропускуДочернихКонтейнеров",
        "uid" : "f057dd9c85155627",
        "parentUid" : "49bb97c21256a691f84c12acf0ff739c",
        "status" : "failed",
        "time" : {
          "start" : 1558499292089,
          "stop" : 1558499292349,
          "duration" : 260
        },
        "flaky" : false,
        "newFailed" : false,
        "parameters" : [ ]
      }, {
        "name" : "ТестДолжен_Проверить_ЧтоТестыВыполняютсяСтрогоПоПорядку",
        "uid" : "f2541ef7f7c50bbc",
        "parentUid" : "49bb97c21256a691f84c12acf0ff739c",
        "status" : "passed",
        "time" : {
          "start" : 1558499292349,
          "stop" : 1558499292482,
          "duration" : 133
        },
        "flaky" : false,
        "newFailed" : false,
        "parameters" : [ ]
      }, {
        "name" : "ТестДолжен_Проверить_ЧтоПадениеТестовВКонтейнереСоСлучайнымПорядком_НеВлияетНаДругиеТестовыеМетоды",
        "uid" : "b382b7a74c30b6a",
        "parentUid" : "49bb97c21256a691f84c12acf0ff739c",
        "status" : "passed",
        "time" : {
          "start" : 1558499292482,
          "stop" : 1558499292679,
          "duration" : 197
        },
        "flaky" : false,
        "newFailed" : false,
        "parameters" : [ ]
      }, {
        "name" : "ТестДолжен_Проверить_ЧтоПоУмолчанию_ТестыВыполняютсяВСлучайномПорядке",
        "uid" : "b1b3d49ebc9bc573",
        "parentUid" : "49bb97c21256a691f84c12acf0ff739c",
        "status" : "passed",
        "time" : {
          "start" : 1558499292679,
          "stop" : 1558499292779,
          "duration" : 100
        },
        "flaky" : false,
        "newFailed" : false,
        "parameters" : [ ]
      }, {
        "name" : "ТестДолжен_Проверить_ЧтоПадениеОдногоТестаВКонтейнереСоСтрогимПорядком_ПриводитКПропускуОставшихсяШагов",
        "uid" : "32da35fb697c460d",
        "parentUid" : "49bb97c21256a691f84c12acf0ff739c",
        "status" : "failed",
        "time" : {
          "start" : 1558499292779,
          "stop" : 1558499293001,
          "duration" : 222
        },
        "flaky" : false,
        "newFailed" : false,
        "parameters" : [ ]
      } ],
      "uid" : "49bb97c21256a691f84c12acf0ff739c"
    }, {
      "name" : "Фильтрация",
      "children" : [ {
        "name" : "ТестДолжен_ПроверитьВыборочныйЗапускТестов_ФильтрКонтейнеров",
        "uid" : "23983a43840eb598",
        "parentUid" : "664f6b9ae13511f6cc33ac664b19a45b",
        "status" : "passed",
        "time" : {
          "start" : 1558499293151,
          "stop" : 1558499293700,
          "duration" : 549
        },
        "flaky" : false,
        "newFailed" : false,
        "parameters" : [ ]
      }, {
        "name" : "ТестДолжен_ПроверитьВыборочныйЗапускТестов_СмешанныйФильтр",
        "uid" : "28e0732420affb74",
        "parentUid" : "664f6b9ae13511f6cc33ac664b19a45b",
        "status" : "passed",
        "time" : {
          "start" : 1558499293700,
          "stop" : 1558499294374,
          "duration" : 674
        },
        "flaky" : false,
        "newFailed" : false,
        "parameters" : [ ]
      }, {
        "name" : "ТестДолжен_ПроверитьВыборочныйЗапускТестов_ФильтрЭлементов",
        "uid" : "fcab44ca03214d11",
        "parentUid" : "664f6b9ae13511f6cc33ac664b19a45b",
        "status" : "passed",
        "time" : {
          "start" : 1558499294375,
          "stop" : 1558499294784,
          "duration" : 409
        },
        "flaky" : false,
        "newFailed" : false,
        "parameters" : [ ]
      } ],
      "uid" : "664f6b9ae13511f6cc33ac664b19a45b"
    } ],
    "uid" : "511569aba420c07b2385ead7beaaadc4"
  }, {
    "name" : "Тесты_ВыполнениеТестов",
    "children" : [ {
      "name" : "Режимы выполнения тестов (случайный и строгий)",
      "children" : [ {
        "name" : "ТестДолжен_Проверить_ЧтоПоУмолчанию_ТестыВыполняютсяВСлучайномПорядке",
        "uid" : "8cd12a10678f7a26",
        "parentUid" : "e38bab1fa37fefb6f04002bd05388a69",
        "status" : "passed",
        "time" : {
          "start" : 1558499294922,
          "stop" : 1558499294924,
          "duration" : 2
        },
        "flaky" : false,
        "newFailed" : false,
        "parameters" : [ ]
      }, {
        "name" : "ТестДолжен_Проверить_ЧтоПадениеТестовВКонтейнереСоСлучайнымПорядком_НеВлияетНаДругиеТестовыеМетоды",
        "uid" : "7f3cb826a19b0ccd",
        "parentUid" : "e38bab1fa37fefb6f04002bd05388a69",
        "status" : "passed",
        "time" : {
          "start" : 1558499294981,
          "stop" : 1558499294984,
          "duration" : 3
        },
        "flaky" : false,
        "newFailed" : false,
        "parameters" : [ ]
      }, {
        "name" : "ТестДолжен_Проверить_ЧтоПадениеОдногоТестаВКонтейнереСоСтрогимПорядком_ПриводитКПропускуДочернихКонтейнеров",
        "uid" : "607869fda06b817a",
        "parentUid" : "e38bab1fa37fefb6f04002bd05388a69",
        "status" : "broken",
        "time" : {
          "start" : 1558499295039,
          "stop" : 1558499295042,
          "duration" : 3
        },
        "flaky" : false,
        "newFailed" : false,
        "parameters" : [ ]
      }, {
        "name" : "ТестДолжен_Проверить_ЧтоПадениеОдногоТестаВКонтейнереСоСтрогимПорядком_ПриводитКПропускуОставшихсяШагов",
        "uid" : "7ba8dfb5e8cd255",
        "parentUid" : "e38bab1fa37fefb6f04002bd05388a69",
        "status" : "broken",
        "time" : {
          "start" : 1558499295114,
          "stop" : 1558499295117,
          "duration" : 3
        },
        "flaky" : false,
        "newFailed" : false,
        "parameters" : [ ]
      }, {
        "name" : "ТестДолжен_Проверить_ЧтоТестыВыполняютсяСтрогоПоПорядку",
        "uid" : "7954ef3ad265bdfa",
        "parentUid" : "e38bab1fa37fefb6f04002bd05388a69",
        "status" : "passed",
        "time" : {
          "start" : 1558499295183,
          "stop" : 1558499295184,
          "duration" : 1
        },
        "flaky" : false,
        "newFailed" : false,
        "parameters" : [ ]
      } ],
      "uid" : "e38bab1fa37fefb6f04002bd05388a69"
    }, {
      "name" : "Статистика",
      "children" : [ {
        "name" : "ТестДолжен_ПроверитьВРезультатеТестирования_ЗаполнениеСтатистики",
        "uid" : "c09bb04ab9107c31",
        "parentUid" : "d7b679a5b7213399c6a8a72049d2d57b",
        "status" : "passed",
        "time" : {
          "start" : 1558499295354,
          "stop" : 1558499295358,
          "duration" : 4
        },
        "flaky" : false,
        "newFailed" : false,
        "parameters" : [ ]
      } ],
      "uid" : "d7b679a5b7213399c6a8a72049d2d57b"
    }, {
      "name" : "Выполнение тестов",
      "children" : [ {
        "name" : "ТестДолжен_ПроверитьРезультатТестированияОтсутствующегоМетода",
        "uid" : "d00fee41b0d119fb",
        "parentUid" : "ac3b3aaf3ac32b59dfa19fcfbe80c9cc",
        "status" : "passed",
        "time" : {
          "start" : 1558499295512,
          "stop" : 1558499295512,
          "duration" : 0
        },
        "flaky" : false,
        "newFailed" : false,
        "parameters" : [ ]
      }, {
        "name" : "ТестДолжен_ПроверитьВызов_ПослеЗапускаТеста",
        "uid" : "a035ba57547edd77",
        "parentUid" : "ac3b3aaf3ac32b59dfa19fcfbe80c9cc",
        "status" : "passed",
        "time" : {
          "start" : 1558499295568,
          "stop" : 1558499295569,
          "duration" : 1
        },
        "flaky" : false,
        "newFailed" : false,
        "parameters" : [ ]
      }, {
        "name" : "ТестДолжен_ПроверитьРезультатТестированияУспешныйМетода",
        "uid" : "221aa7ee9ada0961",
        "parentUid" : "ac3b3aaf3ac32b59dfa19fcfbe80c9cc",
        "status" : "passed",
        "time" : {
          "start" : 1558499295625,
          "stop" : 1558499295626,
          "duration" : 1
        },
        "flaky" : false,
        "newFailed" : false,
        "parameters" : [ ]
      }, {
        "name" : "ТестДолжен_ПроверитьРезультатТеста_Когда_ПередЗапускаТеста_СОшибкой",
        "uid" : "cf067038b280ddb5",
        "parentUid" : "ac3b3aaf3ac32b59dfa19fcfbe80c9cc",
        "status" : "passed",
        "time" : {
          "start" : 1558499295682,
          "stop" : 1558499295684,
          "duration" : 2
        },
        "flaky" : false,
        "newFailed" : false,
        "parameters" : [ ]
      }, {
        "name" : "ТестДолжен_ПроверитьВызов_ПослеЗапускаТеста_УПадающегоТеста",
        "uid" : "a15c3a3d6a66afc3",
        "parentUid" : "ac3b3aaf3ac32b59dfa19fcfbe80c9cc",
        "status" : "passed",
        "time" : {
          "start" : 1558499295740,
          "stop" : 1558499295742,
          "duration" : 2
        },
        "flaky" : false,
        "newFailed" : false,
        "parameters" : [ ]
      }, {
        "name" : "ТестДолжен_ПроверитьВызов_ПередЗапускомТеста",
        "uid" : "979019f5ec1a6935",
        "parentUid" : "ac3b3aaf3ac32b59dfa19fcfbe80c9cc",
        "status" : "passed",
        "time" : {
          "start" : 1558499295799,
          "stop" : 1558499295799,
          "duration" : 0
        },
        "flaky" : false,
        "newFailed" : false,
        "parameters" : [ ]
      }, {
        "name" : "ТестДолжен_ПроверитьРезультатТеста_Когда_ПослеЗапускаТеста_СОшибкой",
        "uid" : "342ce56dd320179c",
        "parentUid" : "ac3b3aaf3ac32b59dfa19fcfbe80c9cc",
        "status" : "passed",
        "time" : {
          "start" : 1558499295855,
          "stop" : 1558499295856,
          "duration" : 1
        },
        "flaky" : false,
        "newFailed" : false,
        "parameters" : [ ]
      }, {
        "name" : "ТестДолжен_ПроверитьРезультатТестированияПадающегоМетода",
        "uid" : "85f42d6f6c373d67",
        "parentUid" : "ac3b3aaf3ac32b59dfa19fcfbe80c9cc",
        "status" : "passed",
        "time" : {
          "start" : 1558499295912,
          "stop" : 1558499295914,
          "duration" : 2
        },
        "flaky" : false,
        "newFailed" : false,
        "parameters" : [ ]
      } ],
      "uid" : "ac3b3aaf3ac32b59dfa19fcfbe80c9cc"
    }, {
      "name" : "Тесты с параметрами",
      "children" : [ {
        "name" : "ТестДолжен_ПроверитьВыполнениеТеста_НесколькоПараметров",
        "uid" : "57dd8a5b904823dc",
        "parentUid" : "4ecf92b86d1d13fcde39dd81f258e63f",
        "status" : "passed",
        "time" : {
          "start" : 1558499296085,
          "stop" : 1558499296086,
          "duration" : 1
        },
        "flaky" : false,
        "newFailed" : false,
        "parameters" : [ ]
      }, {
        "name" : "ТестДолжен_ПроверитьВыполнениеТеста_ОдинПараметр",
        "uid" : "c77ca3a5a7b7f7d7",
        "parentUid" : "4ecf92b86d1d13fcde39dd81f258e63f",
        "status" : "passed",
        "time" : {
          "start" : 1558499296142,
          "stop" : 1558499296143,
          "duration" : 1
        },
        "flaky" : false,
        "newFailed" : false,
        "parameters" : [ ]
      } ],
      "uid" : "4ecf92b86d1d13fcde39dd81f258e63f"
    }, {
      "name" : "Передача контекста",
      "children" : [ {
        "name" : "ТестДолжен_ПроверитьЧтоСохранятьКонтекстМожноТолькоВРамкахКонтейнераСоСтрогимПорядкомВыполнения",
        "uid" : "a258bc907974ba50",
        "parentUid" : "1d021057e4eaad1c090fed4c098673be",
        "status" : "passed",
        "time" : {
          "start" : 1558499296300,
          "stop" : 1558499296301,
          "duration" : 1
        },
        "flaky" : false,
        "newFailed" : false,
        "parameters" : [ ]
      }, {
        "name" : "ТестДолжен_ПроверитьПередачуКонтекстаВЗависимыхТестах",
        "uid" : "a3598b6533ec9403",
        "parentUid" : "1d021057e4eaad1c090fed4c098673be",
        "status" : "passed",
        "time" : {
          "start" : 1558499296355,
          "stop" : 1558499296356,
          "duration" : 1
        },
        "flaky" : false,
        "newFailed" : false,
        "parameters" : [ ]
      }, {
        "name" : "ТестДолжен_ПроверитьЧтоПолучатьКонтекстМожноТолькоВРамкахКонтейнераСоСтрогимПорядкомВыполнения",
        "uid" : "60c5673e70d2d193",
        "parentUid" : "1d021057e4eaad1c090fed4c098673be",
        "status" : "passed",
        "time" : {
          "start" : 1558499296410,
          "stop" : 1558499296411,
          "duration" : 1
        },
        "flaky" : false,
        "newFailed" : false,
        "parameters" : [ ]
      } ],
      "uid" : "1d021057e4eaad1c090fed4c098673be"
    }, {
      "name" : "Фильтрация",
      "children" : [ {
        "name" : "ТестДолжен_ПроверитьВыборочныйЗапускТестов_ФильтрЭлементов",
        "uid" : "42b626a7248689dd",
        "parentUid" : "33e9ee00299cabf0550da4b85cbdac4a",
        "status" : "passed",
        "time" : {
          "start" : 1558499296564,
          "stop" : 1558499296566,
          "duration" : 2
        },
        "flaky" : false,
        "newFailed" : false,
        "parameters" : [ ]
      }, {
        "name" : "ТестДолжен_ПроверитьВыборочныйЗапускТестов_ФильтрКонтейнеров",
        "uid" : "5e4ef13d35b23db0",
        "parentUid" : "33e9ee00299cabf0550da4b85cbdac4a",
        "status" : "passed",
        "time" : {
          "start" : 1558499296624,
          "stop" : 1558499296626,
          "duration" : 2
        },
        "flaky" : false,
        "newFailed" : false,
        "parameters" : [ ]
      }, {
        "name" : "ТестДолжен_ПроверитьВыборочныйЗапускТестов_СмешанныйФильтр",
        "uid" : "9461e196b4454755",
        "parentUid" : "33e9ee00299cabf0550da4b85cbdac4a",
        "status" : "passed",
        "time" : {
          "start" : 1558499296679,
          "stop" : 1558499296681,
          "duration" : 2
        },
        "flaky" : false,
        "newFailed" : false,
        "parameters" : [ ]
      } ],
      "uid" : "33e9ee00299cabf0550da4b85cbdac4a"
    } ],
    "uid" : "83553debe137eb98ab408bd826db0859"
  }, {
    "name" : "УпрФорма # ПереходВОбласть",
    "children" : [ {
      "name" : "Подготовка перед тестированием",
      "children" : [ {
        "name" : "ТестДолжен_ВыполнитьПереходВОбласть",
        "uid" : "9d3a6829e3323871",
        "parentUid" : "9e4a9d80d02e5380dedf511bac245b52",
        "status" : "passed",
        "time" : {
          "start" : 1558499296811,
          "stop" : 1558499297153,
          "duration" : 342
        },
        "flaky" : false,
        "newFailed" : false,
        "parameters" : [ ]
      } ],
      "uid" : "9e4a9d80d02e5380dedf511bac245b52"
    } ],
    "uid" : "423f25a55853b737364d9998bb885f10"
  } ]
}