﻿"Сведения, необходимые для принятия исполнительным органом","","","","","","","","",""
"государственной власти решения о предоставлении компенсации","","","","","","","","",""
"части родительской платы, компенсации родительской платы","","","","","","","","",""
"(невзимании родительской платы) за присмотр и уход за детьми","","","","","","","","",""
"в государственных образовательных учреждениях, реализующих","","","","","","","","",""
"образовательные программы дошкольного образования","","","","","","","","",""
"","","","","","","","","",""
"2019 г.","","","","","","","","",""
"","","","","","","","","",""
"Государственное бюджетное общеобразовательное учреждение лицей №82 Петроградского района Санкт-Петербурга","","","","","","","","",""
"( наименование образовательного учреждения по Уставу )","","","","","","","","",""
"","","","","","","","","",""
"","","","","","","","","",""
"(адрес, телефон образовательного учреждения)","","","","","","","","",""
"","","","","","","","","",""
" № п/п","Ф.И.О. законного представителя ребенка","Фамилия, имя ребенка, дата рождения","Дата поступления ребенка в ОУ","Дата выбытия ребенка из ОУ","Размер родительской платы без компенсации части родительской платы","Основание для предоставления компенсации части родительской платы (невзимания) родительской платы","Размер ежемесячной компенсации в %","Размер ежемесячной компенсации в руб.","Размер родительской платы с учетом компенсации, в руб."
"1","2","3","4","5","6","7","8","9","10"
"","","","","","","","","","200,00"
"1","Беризина Мария","Березин Иван","01.09.2017","","200,00","","","","200,00"
"Первый ребенок в семье, оплата по полной ставке                                                                                                                                                                                                                ","","","","","","","","","51 886,01"
"1","Баранов П.Е.  ","Баранов Илья ","01.09.2018","","3 558,44","Первый ребенок в семье, оплата по полной ставке                                                                                                                                                                                                                ","","","3 558,44"
"2","Власова Д.А.  ","Власова Екатерина ","01.09.2018","","4 121,91","Первый ребенок в семье, оплата по полной ставке                                                                                                                                                                                                                ","","","4 121,91"
"3","Кислицына М.В.  ","Кислицына Кира ","01.09.2018","","4 644,40","Первый ребенок в семье, оплата по полной ставке                                                                                                                                                                                                                ","","","4 644,40"
"4","Лаврентьева Е. А.","Лаврентьева Таисия ","01.09.2018","","3 722,36","Первый ребенок в семье, оплата по полной ставке                                                                                                                                                                                                                ","","","3 722,36"
"5","Ионова К Э  ","Мишкина Лея","01.09.2015","","3 251,08","Первый ребенок в семье, оплата по полной ставке                                                                                                                                                                                                                ","","","3 251,08"
"6","Паламодова М.О.  ","Паламодов Иннокентий ","01.09.2018","","4 644,40","Первый ребенок в семье, оплата по полной ставке                                                                                                                                                                                                                ","","","4 644,40"
"7","Шапошникова А.В. ","Рант Ева ","01.09.2017","","3 753,09","Первый ребенок в семье, оплата по полной ставке                                                                                                                                                                                                                ","","","3 753,09"
"8","Романова Ю.А.  ","Романова Алиса ","01.09.2017","","3 905,52","Первый ребенок в семье, оплата по полной ставке                                                                                                                                                                                                                ","","","3 905,52"
"9","Торопова Елена Владимировна","Торопова Мария","08.09.2016","","4 644,40","Первый ребенок в семье, оплата по полной ставке                                                                                                                                                                                                                ","","","4 644,40"
