﻿"Ведомость по расчетам с родителями","","","","","","","","","",""
"за период ","","","","","","","","","",""
"","","","","","","","","","",""
"","","","","","","","","","",""
"Отбор:","Организация Равно ""Лицей 82"" И\nГруппа Равно ""Группа 01""","","","","","","","","",""
"","","","","","","","","","",""
"Организация","","","Задолженность на начало","","Дни","Начислено","Оплачено","Компенсация","Задолженность на конец",""
"Группа","","","Недоплата","Переплата","","","","","Недоплата","Переплата"
"№ в группе","Ребенок","Категория","","","","","","","",""
"Лицей 82","","","3 533,23","","66","3 821,69","288,46","580,55","",""
"Группа 01","","","3 533,23","","66","3 821,69","288,46","580,55","",""
"1","Березин Иван","дети с туберкулезной интоксикацией","2 916,74","","49","3 205,20","288,46","","",""
"2","Даниелянц Михаил","РП 2-ой из 2-х","616,49","","17","616,49","","580,55","",""
"Количество детей: 2","","Итого:","3 533,23","","66","3 821,69","288,46","580,55","",""
