﻿"Отчет о компенсации родительской платы (невзимании\nродительской платы) за присмотр и уход за детьми\nв государственных образовательных учреждениях, реализующих\nобразовательные программы дошкольного образования\n","","","","",""
"","","","","",""
"Май 2019 г.","","","","",""
"","","","","",""
"","","","","",""
"( наименование исполнительного органа государственной власти Санкт-Петербурга )","","","","",""
"","","","","",""
"","","","","",""
"(адрес, телефон исполнительного органа)","","","","",""
"","","","","",""
"","","","","",""
"","","","","",""
"N п/п","Категории родителей (законных представителей), родительская плата с которых не взимается","","Численность детей","",""
"1","2","","3","",""
"1","Дети, с родителей (законных представителей) которых родительская плата не взимается, в том числе:","","","",""
"1.1","дети-инвалиды","","","",""
"1.2","дети-сироты и дети, оставшиеся без попечения родит","","","",""
"1.3","дети с туберкулезной интоксикацией","","","",""
"1.4","дети, семьи которых имеют в своем составе ребенка-инвалида","","","",""
"1.5","дети, у которых оба или единственный родитель (законный представитель) являются инвалидами I или II группы","","","",""
"1.6","дети, у которых один из родителей (законных представителей) является военнослужащим срочной службы","","","",""
"1.7","дети, у которых один из родителей (законных представителей) занимает штатную должность в государстве","","","",""
"1.8","дети, посещающие группы по адаптированным программам","","","",""
"","","","","",""
"","","","","",""
"","","","","",""
"Исполнитель","","","","","<Служебный П. 1."
"","(должность)","","(подпись)","","(расшифровка подписи)"
