﻿"N","Ребенок","Ставка оплаты","Среднее значение оплаты","Дней посещения","Сумма","Категория","%","Ставка","Компенсация"
"1","Березин Иван","Присмотр и уход за детьми в возрасте от 3 лет до 8 лет / Группа полного дня 01.01.2019","1 161,10","17","1 161,10","дети с туберкулезной интоксикацией","","1 161,10",""
"2","Даниелянц Михаил","Присмотр и уход за детьми в возрасте от 3 лет до 8 лет / Группа полного дня 01.01.2019","1 161,10","17","580,55","РП 2-ой из 2-х","50","1 161,10","580,55"
