﻿"Регистр накопления ""ЕК: Расчеты по услугам""","","","","","","","","",""
"","","","","","","","","",""
"Активность","Вид движения","Тип услуг","Направление деятельности","Организация","Контрагент","Договор","Группа детского учреждения","Период","Сумма"
"Да","Приход","Родительская плата","Родительская плата","Лицей 82","Даниелянц Михаил ","Родительская плата","","21.05.2019 8:39:09","10"
